0.00000,0.00000
1.00000,0.99803
2.00000,0.06267
3.00000,-0.98229
4.00000,-0.12434
5.00000,0.47553
6.00000,0.36812
7.00000,-0.45241
8.00000,-0.24088
9.00000,0.84433
10.00000,0.29389
11.00000,-0.38526
12.00000,-0.68455
13.00000,0.68455
14.00000,0.77051
15.00000,-0.29389
16.00000,-0.84433
17.00000,0.24088
18.00000,0.45241
19.00000,-0.36812
20.00000,-0.95106
21.00000,0.24869
22.00000,0.98229
23.00000,-0.06267
24.00000,-0.99803
25.00000,0.00000
26.00000,0.49901
27.00000,0.06267
28.00000,-0.98229
29.00000,-0.24869
30.00000,0.95106
31.00000,0.18406
32.00000,-0.45241
33.00000,-0.24088
34.00000,0.84433
35.00000,0.29389
36.00000,-0.77051
37.00000,-0.68455
38.00000,0.68455
39.00000,0.38526
40.00000,-0.58779
41.00000,-0.42216
42.00000,0.24088
43.00000,0.90483
44.00000,-0.18406
45.00000,-0.95106
46.00000,0.24869
47.00000,0.49114
48.00000,-0.12533
49.00000,-0.49901
50.00000,-0.00000
51.00000,0.49901
52.00000,0.06267
53.00000,-0.98229
54.00000,-0.24869
55.00000,0.47553
56.00000,0.18406
57.00000,-0.90483
58.00000,-0.48175
59.00000,0.84433
60.00000,0.29389
61.00000,-0.77051
62.00000,-0.68455
63.00000,0.34227
64.00000,0.38526
65.00000,-0.29389
66.00000,-0.42216
67.00000,0.24088
68.00000,0.45241
69.00000,-0.36812
70.00000,-0.47553
71.00000,0.12434
72.00000,0.98229
73.00000,-0.12533
74.00000,-0.99803
75.00000,-0.00000
76.00000,0.49901
77.00000,0.06267
78.00000,-0.98229
79.00000,-0.12434
80.00000,0.95106
81.00000,0.36812
82.00000,-0.90483
83.00000,-0.48175
84.00000,0.42216
85.00000,0.58779
86.00000,-0.77051
87.00000,-0.34227
88.00000,0.34227
89.00000,0.77051
90.00000,-0.29389
91.00000,-0.42216
92.00000,0.48175
93.00000,0.90483
94.00000,-0.36812
95.00000,-0.47553
96.00000,0.24869
97.00000,0.49114
98.00000,-0.12533
99.00000,-0.49901
100.00000,-0.00000
