0.00000,-29.60946
1.00000,-29.32226
2.00000,-28.16463
3.00000,-24.78499
4.00000,0.95521
5.00000,-3.00655
6.00000,0.97785
7.00000,-21.75665
8.00000,-25.27962
9.00000,-27.35046
10.00000,-28.80240
11.00000,-29.90946
12.00000,-30.79741
13.00000,-31.53461
14.00000,-32.16230
15.00000,-32.70722
16.00000,-33.18765
17.00000,-33.61658
18.00000,-34.00358
19.00000,-34.35585
20.00000,-34.67895
21.00000,-34.97724
22.00000,-35.25421
23.00000,-35.51267
24.00000,-35.75493
25.00000,-35.98289
26.00000,-36.19817
27.00000,-36.40210
28.00000,-36.59584
29.00000,-36.78037
30.00000,-36.95654
31.00000,-37.12509
32.00000,-37.28666
33.00000,-37.44183
34.00000,-37.59108
35.00000,-37.73487
36.00000,-37.87359
37.00000,-38.00759
38.00000,-38.13719
39.00000,-38.26267
40.00000,-38.38431
41.00000,-38.50232
42.00000,-38.61693
43.00000,-38.72833
44.00000,-38.83669
45.00000,-38.94219
46.00000,-39.04497
47.00000,-39.14517
48.00000,-39.24292
49.00000,-39.33834
50.00000,-39.43153
51.00000,-39.52260
52.00000,-39.61165
53.00000,-39.69877
54.00000,-39.78403
55.00000,-39.86751
56.00000,-39.94929
57.00000,-40.02944
58.00000,-40.10801
59.00000,-40.18507
60.00000,-40.26068
61.00000,-40.33489
62.00000,-40.40775
63.00000,-40.47931
64.00000,-40.54961
65.00000,-40.61869
66.00000,-40.68660
67.00000,-40.75338
68.00000,-40.81905
69.00000,-40.88367
70.00000,-40.94725
71.00000,-41.00983
72.00000,-41.07145
73.00000,-41.13212
74.00000,-41.19188
75.00000,-41.25075
76.00000,-41.30876
77.00000,-41.36593
78.00000,-41.42229
79.00000,-41.47785
80.00000,-41.53264
81.00000,-41.58668
82.00000,-41.63998
83.00000,-41.69258
84.00000,-41.74447
85.00000,-41.79569
86.00000,-41.84624
87.00000,-41.89615
88.00000,-41.94542
89.00000,-41.99408
90.00000,-42.04214
91.00000,-42.08960
92.00000,-42.13650
93.00000,-42.18283
94.00000,-42.22860
95.00000,-42.27384
96.00000,-42.31856
97.00000,-42.36276
98.00000,-42.40645
99.00000,-42.44964
100.00000,-42.49236
101.00000,-42.53460
102.00000,-42.57637
103.00000,-42.61768
104.00000,-42.65855
105.00000,-42.69898
106.00000,-42.73898
107.00000,-42.77856
108.00000,-42.81772
109.00000,-42.85648
110.00000,-42.89483
111.00000,-42.93280
112.00000,-42.97038
113.00000,-43.00758
114.00000,-43.04441
115.00000,-43.08087
116.00000,-43.11697
117.00000,-43.15272
118.00000,-43.18813
119.00000,-43.22319
120.00000,-43.25791
121.00000,-43.29231
122.00000,-43.32638
123.00000,-43.36013
124.00000,-43.39356
125.00000,-43.42669
126.00000,-43.45951
127.00000,-43.49203
128.00000,-43.52425
129.00000,-43.55619
130.00000,-43.58783
131.00000,-43.61919
132.00000,-43.65028
133.00000,-43.68109
134.00000,-43.71162
135.00000,-43.74190
136.00000,-43.77190
137.00000,-43.80165
138.00000,-43.83114
139.00000,-43.86039
140.00000,-43.88938
141.00000,-43.91812
142.00000,-43.94663
143.00000,-43.97489
144.00000,-44.00292
145.00000,-44.03072
146.00000,-44.05828
147.00000,-44.08562
148.00000,-44.11274
149.00000,-44.13963
150.00000,-44.16631
151.00000,-44.19277
152.00000,-44.21902
153.00000,-44.24505
154.00000,-44.27088
155.00000,-44.29651
156.00000,-44.32193
157.00000,-44.34715
158.00000,-44.37217
159.00000,-44.39700
160.00000,-44.42163
161.00000,-44.44607
162.00000,-44.47032
163.00000,-44.49439
164.00000,-44.51827
165.00000,-44.54197
166.00000,-44.56548
167.00000,-44.58882
168.00000,-44.61198
169.00000,-44.63497
170.00000,-44.65778
171.00000,-44.68042
172.00000,-44.70289
173.00000,-44.72519
174.00000,-44.74733
175.00000,-44.76930
176.00000,-44.79111
177.00000,-44.81276
178.00000,-44.83425
179.00000,-44.85559
180.00000,-44.87676
181.00000,-44.89778
182.00000,-44.91865
183.00000,-44.93937
184.00000,-44.95993
185.00000,-44.98035
186.00000,-45.00062
187.00000,-45.02074
188.00000,-45.04072
189.00000,-45.06055
190.00000,-45.08025
191.00000,-45.09980
192.00000,-45.11921
193.00000,-45.13849
194.00000,-45.15762
195.00000,-45.17663
196.00000,-45.19549
197.00000,-45.21423
198.00000,-45.23283
199.00000,-45.25130
200.00000,-45.26964
201.00000,-45.28785
202.00000,-45.30594
203.00000,-45.32389
204.00000,-45.34172
205.00000,-45.35943
206.00000,-45.37701
207.00000,-45.39447
208.00000,-45.41181
209.00000,-45.42903
210.00000,-45.44613
211.00000,-45.46311
212.00000,-45.47997
213.00000,-45.49672
214.00000,-45.51335
215.00000,-45.52986
216.00000,-45.54626
217.00000,-45.56255
218.00000,-45.57872
219.00000,-45.59479
220.00000,-45.61074
221.00000,-45.62658
222.00000,-45.64231
223.00000,-45.65794
224.00000,-45.67345
225.00000,-45.68886
226.00000,-45.70417
227.00000,-45.71937
228.00000,-45.73446
229.00000,-45.74945
230.00000,-45.76434
231.00000,-45.77912
232.00000,-45.79380
233.00000,-45.80839
234.00000,-45.82287
235.00000,-45.83725
236.00000,-45.85153
237.00000,-45.86572
238.00000,-45.87980
239.00000,-45.89379
240.00000,-45.90769
241.00000,-45.92148
242.00000,-45.93519
243.00000,-45.94879
244.00000,-45.96231
245.00000,-45.97573
246.00000,-45.98906
247.00000,-46.00229
248.00000,-46.01543
249.00000,-46.02849
250.00000,-46.04145
251.00000,-46.05432
252.00000,-46.06710
253.00000,-46.07979
254.00000,-46.09240
255.00000,-46.10492
256.00000,-46.11735
257.00000,-46.12969
258.00000,-46.14194
259.00000,-46.15411
260.00000,-46.16620
261.00000,-46.17820
262.00000,-46.19011
263.00000,-46.20194
264.00000,-46.21369
265.00000,-46.22536
266.00000,-46.23694
267.00000,-46.24844
268.00000,-46.25985
269.00000,-46.27119
270.00000,-46.28245
271.00000,-46.29362
272.00000,-46.30471
273.00000,-46.31573
274.00000,-46.32666
275.00000,-46.33752
276.00000,-46.34830
277.00000,-46.35900
278.00000,-46.36962
279.00000,-46.38017
280.00000,-46.39063
281.00000,-46.40103
282.00000,-46.41134
283.00000,-46.42158
284.00000,-46.43174
285.00000,-46.44183
286.00000,-46.45185
287.00000,-46.46179
288.00000,-46.47165
289.00000,-46.48144
290.00000,-46.49116
291.00000,-46.50081
292.00000,-46.51038
293.00000,-46.51988
294.00000,-46.52931
295.00000,-46.53866
296.00000,-46.54795
297.00000,-46.55716
298.00000,-46.56630
299.00000,-46.57537
300.00000,-46.58437
301.00000,-46.59330
302.00000,-46.60217
303.00000,-46.61096
304.00000,-46.61968
305.00000,-46.62833
306.00000,-46.63692
307.00000,-46.64544
308.00000,-46.65389
309.00000,-46.66227
310.00000,-46.67058
311.00000,-46.67883
312.00000,-46.68701
313.00000,-46.69512
314.00000,-46.70316
315.00000,-46.71114
316.00000,-46.71906
317.00000,-46.72691
318.00000,-46.73469
319.00000,-46.74241
320.00000,-46.75006
321.00000,-46.75764
322.00000,-46.76517
323.00000,-46.77263
324.00000,-46.78002
325.00000,-46.78735
326.00000,-46.79462
327.00000,-46.80182
328.00000,-46.80896
329.00000,-46.81603
330.00000,-46.82305
331.00000,-46.83000
332.00000,-46.83689
333.00000,-46.84371
334.00000,-46.85048
335.00000,-46.85718
336.00000,-46.86382
337.00000,-46.87040
338.00000,-46.87692
339.00000,-46.88337
340.00000,-46.88977
341.00000,-46.89610
342.00000,-46.90238
343.00000,-46.90859
344.00000,-46.91474
345.00000,-46.92083
346.00000,-46.92687
347.00000,-46.93284
348.00000,-46.93876
349.00000,-46.94461
350.00000,-46.95040
351.00000,-46.95614
352.00000,-46.96182
353.00000,-46.96744
354.00000,-46.97300
355.00000,-46.97850
356.00000,-46.98394
357.00000,-46.98932
358.00000,-46.99465
359.00000,-46.99992
360.00000,-47.00513
361.00000,-47.01028
362.00000,-47.01538
363.00000,-47.02042
364.00000,-47.02540
365.00000,-47.03032
366.00000,-47.03519
367.00000,-47.04000
368.00000,-47.04475
369.00000,-47.04945
370.00000,-47.05409
371.00000,-47.05868
372.00000,-47.06321
373.00000,-47.06768
374.00000,-47.07209
375.00000,-47.07645
376.00000,-47.08076
377.00000,-47.08501
378.00000,-47.08920
379.00000,-47.09334
380.00000,-47.09742
381.00000,-47.10145
382.00000,-47.10542
383.00000,-47.10934
384.00000,-47.11320
385.00000,-47.11701
386.00000,-47.12076
387.00000,-47.12446
388.00000,-47.12810
389.00000,-47.13169
390.00000,-47.13522
391.00000,-47.13870
392.00000,-47.14213
393.00000,-47.14550
394.00000,-47.14882
395.00000,-47.15208
396.00000,-47.15529
397.00000,-47.15845
398.00000,-47.16155
399.00000,-47.16460
400.00000,-47.16760
401.00000,-47.17054
402.00000,-47.17343
403.00000,-47.17627
404.00000,-47.17905
405.00000,-47.18178
406.00000,-47.18445
407.00000,-47.18708
408.00000,-47.18965
409.00000,-47.19216
410.00000,-47.19463
411.00000,-47.19704
412.00000,-47.19940
413.00000,-47.20171
414.00000,-47.20396
415.00000,-47.20616
416.00000,-47.20831
417.00000,-47.21040
418.00000,-47.21245
419.00000,-47.21444
420.00000,-47.21638
421.00000,-47.21826
422.00000,-47.22010
423.00000,-47.22188
424.00000,-47.22361
425.00000,-47.22529
426.00000,-47.22692
427.00000,-47.22849
428.00000,-47.23001
429.00000,-47.23148
430.00000,-47.23290
431.00000,-47.23427
432.00000,-47.23558
433.00000,-47.23684
434.00000,-47.23805
435.00000,-47.23921
436.00000,-47.24032
437.00000,-47.24138
438.00000,-47.24238
439.00000,-47.24333
440.00000,-47.24423
441.00000,-47.24508
442.00000,-47.24588
443.00000,-47.24663
444.00000,-47.24732
445.00000,-47.24797
446.00000,-47.24856
447.00000,-47.24910
448.00000,-47.24959
449.00000,-47.25002
450.00000,-47.25041
451.00000,-47.25074
452.00000,-47.25103
453.00000,-47.25126
454.00000,-47.25144
455.00000,-47.25157
456.00000,-47.25164
457.00000,-47.25167
458.00000,-47.25164
459.00000,-47.25157
460.00000,-47.25144
461.00000,-47.25126
462.00000,-47.25103
463.00000,-47.25074
464.00000,-47.25041
465.00000,-47.25002
466.00000,-47.24959
467.00000,-47.24910
468.00000,-47.24856
469.00000,-47.24797
470.00000,-47.24732
471.00000,-47.24663
472.00000,-47.24588
473.00000,-47.24508
474.00000,-47.24423
475.00000,-47.24333
476.00000,-47.24238
477.00000,-47.24138
478.00000,-47.24032
479.00000,-47.23921
480.00000,-47.23805
481.00000,-47.23684
482.00000,-47.23558
483.00000,-47.23427
484.00000,-47.23290
485.00000,-47.23148
486.00000,-47.23001
487.00000,-47.22849
488.00000,-47.22692
489.00000,-47.22529
490.00000,-47.22361
491.00000,-47.22188
492.00000,-47.22010
493.00000,-47.21826
494.00000,-47.21638
495.00000,-47.21444
496.00000,-47.21245
497.00000,-47.21040
498.00000,-47.20831
499.00000,-47.20616
500.00000,-47.20396
501.00000,-47.20171
502.00000,-47.19940
503.00000,-47.19704
504.00000,-47.19463
505.00000,-47.19216
506.00000,-47.18965
507.00000,-47.18708
508.00000,-47.18445
509.00000,-47.18178
510.00000,-47.17905
511.00000,-47.17627
512.00000,-47.17343
513.00000,-47.17054
514.00000,-47.16760
515.00000,-47.16460
516.00000,-47.16155
517.00000,-47.15845
518.00000,-47.15529
519.00000,-47.15208
520.00000,-47.14882
521.00000,-47.14550
522.00000,-47.14213
523.00000,-47.13870
524.00000,-47.13522
525.00000,-47.13169
526.00000,-47.12810
527.00000,-47.12446
528.00000,-47.12076
529.00000,-47.11701
530.00000,-47.11320
531.00000,-47.10934
532.00000,-47.10542
533.00000,-47.10145
534.00000,-47.09742
535.00000,-47.09334
536.00000,-47.08920
537.00000,-47.08501
538.00000,-47.08076
539.00000,-47.07645
540.00000,-47.07209
541.00000,-47.06768
542.00000,-47.06321
543.00000,-47.05868
544.00000,-47.05409
545.00000,-47.04945
546.00000,-47.04476
547.00000,-47.04000
548.00000,-47.03519
549.00000,-47.03032
550.00000,-47.02540
551.00000,-47.02042
552.00000,-47.01538
553.00000,-47.01028
554.00000,-47.00513
555.00000,-46.99992
556.00000,-46.99465
557.00000,-46.98932
558.00000,-46.98394
559.00000,-46.97850
560.00000,-46.97300
561.00000,-46.96744
562.00000,-46.96182
563.00000,-46.95614
564.00000,-46.95040
565.00000,-46.94461
566.00000,-46.93876
567.00000,-46.93284
568.00000,-46.92687
569.00000,-46.92083
570.00000,-46.91474
571.00000,-46.90859
572.00000,-46.90238
573.00000,-46.89610
574.00000,-46.88977
575.00000,-46.88337
576.00000,-46.87692
577.00000,-46.87040
578.00000,-46.86382
579.00000,-46.85718
580.00000,-46.85048
581.00000,-46.84371
582.00000,-46.83689
583.00000,-46.83000
584.00000,-46.82305
585.00000,-46.81603
586.00000,-46.80896
587.00000,-46.80182
588.00000,-46.79462
589.00000,-46.78735
590.00000,-46.78002
591.00000,-46.77263
592.00000,-46.76517
593.00000,-46.75764
594.00000,-46.75006
595.00000,-46.74241
596.00000,-46.73469
597.00000,-46.72691
598.00000,-46.71906
599.00000,-46.71114
600.00000,-46.70316
601.00000,-46.69512
602.00000,-46.68701
603.00000,-46.67883
604.00000,-46.67058
605.00000,-46.66227
606.00000,-46.65389
607.00000,-46.64544
608.00000,-46.63692
609.00000,-46.62833
610.00000,-46.61968
611.00000,-46.61096
612.00000,-46.60217
613.00000,-46.59330
614.00000,-46.58437
615.00000,-46.57537
616.00000,-46.56630
617.00000,-46.55716
618.00000,-46.54795
619.00000,-46.53866
620.00000,-46.52931
621.00000,-46.51988
622.00000,-46.51038
623.00000,-46.50081
624.00000,-46.49116
625.00000,-46.48144
626.00000,-46.47165
627.00000,-46.46179
628.00000,-46.45185
629.00000,-46.44183
630.00000,-46.43174
631.00000,-46.42158
632.00000,-46.41134
633.00000,-46.40103
634.00000,-46.39063
635.00000,-46.38017
636.00000,-46.36962
637.00000,-46.35900
638.00000,-46.34830
639.00000,-46.33752
640.00000,-46.32666
641.00000,-46.31573
642.00000,-46.30471
643.00000,-46.29362
644.00000,-46.28245
645.00000,-46.27119
646.00000,-46.25985
647.00000,-46.24844
648.00000,-46.23694
649.00000,-46.22536
650.00000,-46.21369
651.00000,-46.20194
652.00000,-46.19011
653.00000,-46.17820
654.00000,-46.16620
655.00000,-46.15411
656.00000,-46.14194
657.00000,-46.12969
658.00000,-46.11735
659.00000,-46.10492
660.00000,-46.09240
661.00000,-46.07979
662.00000,-46.06710
663.00000,-46.05432
664.00000,-46.04145
665.00000,-46.02849
666.00000,-46.01543
667.00000,-46.00229
668.00000,-45.98906
669.00000,-45.97573
670.00000,-45.96231
671.00000,-45.94879
672.00000,-45.93519
673.00000,-45.92148
674.00000,-45.90769
675.00000,-45.89379
676.00000,-45.87980
677.00000,-45.86572
678.00000,-45.85153
679.00000,-45.83725
680.00000,-45.82287
681.00000,-45.80839
682.00000,-45.79380
683.00000,-45.77912
684.00000,-45.76434
685.00000,-45.74945
686.00000,-45.73446
687.00000,-45.71937
688.00000,-45.70417
689.00000,-45.68886
690.00000,-45.67345
691.00000,-45.65794
692.00000,-45.64231
693.00000,-45.62658
694.00000,-45.61074
695.00000,-45.59479
696.00000,-45.57872
697.00000,-45.56255
698.00000,-45.54626
699.00000,-45.52986
700.00000,-45.51335
701.00000,-45.49672
702.00000,-45.47997
703.00000,-45.46311
704.00000,-45.44613
705.00000,-45.42903
706.00000,-45.41181
707.00000,-45.39447
708.00000,-45.37701
709.00000,-45.35943
710.00000,-45.34172
711.00000,-45.32389
712.00000,-45.30594
713.00000,-45.28785
714.00000,-45.26964
715.00000,-45.25130
716.00000,-45.23283
717.00000,-45.21423
718.00000,-45.19549
719.00000,-45.17663
720.00000,-45.15762
721.00000,-45.13849
722.00000,-45.11921
723.00000,-45.09980
724.00000,-45.08025
725.00000,-45.06055
726.00000,-45.04072
727.00000,-45.02074
728.00000,-45.00062
729.00000,-44.98035
730.00000,-44.95993
731.00000,-44.93937
732.00000,-44.91865
733.00000,-44.89778
734.00000,-44.87676
735.00000,-44.85559
736.00000,-44.83425
737.00000,-44.81276
738.00000,-44.79111
739.00000,-44.76930
740.00000,-44.74733
741.00000,-44.72519
742.00000,-44.70289
743.00000,-44.68042
744.00000,-44.65778
745.00000,-44.63497
746.00000,-44.61198
747.00000,-44.58882
748.00000,-44.56548
749.00000,-44.54197
750.00000,-44.51827
751.00000,-44.49439
752.00000,-44.47032
753.00000,-44.44607
754.00000,-44.42163
755.00000,-44.39700
756.00000,-44.37217
757.00000,-44.34715
758.00000,-44.32193
759.00000,-44.29651
760.00000,-44.27088
761.00000,-44.24505
762.00000,-44.21902
763.00000,-44.19277
764.00000,-44.16631
765.00000,-44.13963
766.00000,-44.11274
767.00000,-44.08562
768.00000,-44.05828
769.00000,-44.03072
770.00000,-44.00292
771.00000,-43.97489
772.00000,-43.94663
773.00000,-43.91812
774.00000,-43.88938
775.00000,-43.86039
776.00000,-43.83114
777.00000,-43.80165
778.00000,-43.77190
779.00000,-43.74190
780.00000,-43.71162
781.00000,-43.68109
782.00000,-43.65028
783.00000,-43.61919
784.00000,-43.58783
785.00000,-43.55619
786.00000,-43.52425
787.00000,-43.49203
788.00000,-43.45951
789.00000,-43.42669
790.00000,-43.39356
791.00000,-43.36013
792.00000,-43.32638
793.00000,-43.29231
794.00000,-43.25791
795.00000,-43.22319
796.00000,-43.18813
797.00000,-43.15272
798.00000,-43.11697
799.00000,-43.08087
800.00000,-43.04441
801.00000,-43.00758
802.00000,-42.97038
803.00000,-42.93280
804.00000,-42.89483
805.00000,-42.85648
806.00000,-42.81772
807.00000,-42.77856
808.00000,-42.73898
809.00000,-42.69898
810.00000,-42.65855
811.00000,-42.61768
812.00000,-42.57637
813.00000,-42.53460
814.00000,-42.49236
815.00000,-42.44964
816.00000,-42.40645
817.00000,-42.36276
818.00000,-42.31856
819.00000,-42.27384
820.00000,-42.22860
821.00000,-42.18283
822.00000,-42.13650
823.00000,-42.08960
824.00000,-42.04214
825.00000,-41.99408
826.00000,-41.94542
827.00000,-41.89615
828.00000,-41.84624
829.00000,-41.79569
830.00000,-41.74447
831.00000,-41.69258
832.00000,-41.63998
833.00000,-41.58668
834.00000,-41.53264
835.00000,-41.47785
836.00000,-41.42229
837.00000,-41.36593
838.00000,-41.30876
839.00000,-41.25075
840.00000,-41.19188
841.00000,-41.13212
842.00000,-41.07145
843.00000,-41.00983
844.00000,-40.94725
845.00000,-40.88367
846.00000,-40.81905
847.00000,-40.75338
848.00000,-40.68660
849.00000,-40.61869
850.00000,-40.54961
851.00000,-40.47931
852.00000,-40.40775
853.00000,-40.33489
854.00000,-40.26068
855.00000,-40.18507
856.00000,-40.10801
857.00000,-40.02944
858.00000,-39.94929
859.00000,-39.86751
860.00000,-39.78403
861.00000,-39.69877
862.00000,-39.61165
863.00000,-39.52260
864.00000,-39.43153
865.00000,-39.33834
866.00000,-39.24292
867.00000,-39.14517
868.00000,-39.04497
869.00000,-38.94219
870.00000,-38.83669
871.00000,-38.72833
872.00000,-38.61693
873.00000,-38.50232
874.00000,-38.38431
875.00000,-38.26267
876.00000,-38.13719
877.00000,-38.00759
878.00000,-37.87359
879.00000,-37.73487
880.00000,-37.59108
881.00000,-37.44183
882.00000,-37.28666
883.00000,-37.12509
884.00000,-36.95654
885.00000,-36.78037
886.00000,-36.59584
887.00000,-36.40210
888.00000,-36.19817
889.00000,-35.98289
890.00000,-35.75493
891.00000,-35.51267
892.00000,-35.25421
893.00000,-34.97724
894.00000,-34.67895
895.00000,-34.35585
896.00000,-34.00358
897.00000,-33.61658
898.00000,-33.18765
899.00000,-32.70722
900.00000,-32.16230
901.00000,-31.53461
902.00000,-30.79741
903.00000,-29.90946
904.00000,-28.80240
905.00000,-27.35046
906.00000,-25.27962
907.00000,-21.75665
908.00000,0.97785
909.00000,-3.00655
910.00000,0.95521
911.00000,-24.78499
912.00000,-28.16463
913.00000,-29.32226
