0.00000,-25.38870
1.00000,-21.43572
2.00000,-14.95219
3.00000,-9.29043
4.00000,-5.53594
5.00000,-5.96486
6.00000,-5.52614
7.00000,-9.33299
8.00000,-15.07267
9.00000,-22.37103
10.00000,-29.71742
11.00000,-53.93676
12.00000,-39.47141
13.00000,-40.79306
14.00000,-41.40493
15.00000,-42.04062
16.00000,-42.62516
17.00000,-43.17224
18.00000,-43.68595
19.00000,-44.17025
20.00000,-44.62839
21.00000,-45.06310
22.00000,-45.47672
23.00000,-45.87122
24.00000,-46.24833
25.00000,-46.60954
26.00000,-46.95615
27.00000,-47.28933
28.00000,-47.61009
29.00000,-47.91933
30.00000,-48.21787
31.00000,-48.50643
32.00000,-48.78567
33.00000,-49.05617
34.00000,-49.31849
35.00000,-49.57310
36.00000,-49.82045
37.00000,-50.06095
38.00000,-50.29497
39.00000,-50.52287
40.00000,-50.74495
41.00000,-50.96151
42.00000,-51.17282
43.00000,-51.37914
44.00000,-51.58069
45.00000,-51.77771
46.00000,-51.97038
47.00000,-52.15891
48.00000,-52.34346
49.00000,-52.52421
50.00000,-52.70131
51.00000,-52.87491
52.00000,-53.04515
53.00000,-53.21216
54.00000,-53.37606
55.00000,-53.53696
56.00000,-53.69499
57.00000,-53.85023
58.00000,-54.00279
59.00000,-54.15277
60.00000,-54.30024
61.00000,-54.44530
62.00000,-54.58803
63.00000,-54.72849
64.00000,-54.86677
65.00000,-55.00293
66.00000,-55.13704
67.00000,-55.26916
68.00000,-55.39935
69.00000,-55.52767
70.00000,-55.65417
71.00000,-55.77890
72.00000,-55.90193
73.00000,-56.02328
74.00000,-56.14302
75.00000,-56.26118
76.00000,-56.37781
77.00000,-56.49295
78.00000,-56.60663
79.00000,-56.71890
80.00000,-56.82979
81.00000,-56.93934
82.00000,-57.04758
83.00000,-57.15454
84.00000,-57.26025
85.00000,-57.36475
86.00000,-57.46806
87.00000,-57.57022
88.00000,-57.67124
89.00000,-57.77116
90.00000,-57.87000
91.00000,-57.96779
92.00000,-58.06454
93.00000,-58.16029
94.00000,-58.25505
95.00000,-58.34884
96.00000,-58.44169
97.00000,-58.53362
98.00000,-58.62464
99.00000,-58.71478
100.00000,-58.80406
101.00000,-58.89248
102.00000,-58.98007
103.00000,-59.06685
104.00000,-59.15283
105.00000,-59.23803
106.00000,-59.32246
107.00000,-59.40614
108.00000,-59.48909
109.00000,-59.57131
110.00000,-59.65282
111.00000,-59.73364
112.00000,-59.81377
113.00000,-59.89323
114.00000,-59.97204
115.00000,-60.05020
116.00000,-60.12773
117.00000,-60.20464
118.00000,-60.28093
119.00000,-60.35663
120.00000,-60.43173
121.00000,-60.50626
122.00000,-60.58022
123.00000,-60.65362
124.00000,-60.72647
125.00000,-60.79878
126.00000,-60.87056
127.00000,-60.94182
128.00000,-61.01257
129.00000,-61.08281
130.00000,-61.15256
131.00000,-61.22182
132.00000,-61.29060
133.00000,-61.35890
134.00000,-61.42675
135.00000,-61.49414
136.00000,-61.56107
137.00000,-61.62757
138.00000,-61.69363
139.00000,-61.75927
140.00000,-61.82448
141.00000,-61.88928
142.00000,-61.95367
143.00000,-62.01766
144.00000,-62.08126
145.00000,-62.14446
146.00000,-62.20728
147.00000,-62.26973
148.00000,-62.33180
149.00000,-62.39351
150.00000,-62.45486
151.00000,-62.51585
152.00000,-62.57649
153.00000,-62.63679
154.00000,-62.69675
155.00000,-62.75637
156.00000,-62.81567
157.00000,-62.87464
158.00000,-62.93329
159.00000,-62.99163
160.00000,-63.04965
161.00000,-63.10738
162.00000,-63.16480
163.00000,-63.22192
164.00000,-63.27875
165.00000,-63.33530
166.00000,-63.39156
167.00000,-63.44754
168.00000,-63.50324
169.00000,-63.55867
170.00000,-63.61384
171.00000,-63.66874
172.00000,-63.72338
173.00000,-63.77777
174.00000,-63.83190
175.00000,-63.88578
176.00000,-63.93942
177.00000,-63.99282
178.00000,-64.04598
179.00000,-64.09890
180.00000,-64.15159
181.00000,-64.20406
182.00000,-64.25630
183.00000,-64.30832
184.00000,-64.36012
185.00000,-64.41170
186.00000,-64.46307
187.00000,-64.51424
188.00000,-64.56520
189.00000,-64.61595
190.00000,-64.66651
191.00000,-64.71687
192.00000,-64.76703
193.00000,-64.81701
194.00000,-64.86679
195.00000,-64.91639
196.00000,-64.96581
197.00000,-65.01505
198.00000,-65.06411
199.00000,-65.11300
200.00000,-65.16171
201.00000,-65.21026
202.00000,-65.25864
203.00000,-65.30685
204.00000,-65.35491
205.00000,-65.40280
206.00000,-65.45054
207.00000,-65.49812
208.00000,-65.54556
209.00000,-65.59284
210.00000,-65.63998
211.00000,-65.68697
212.00000,-65.73383
213.00000,-65.78054
214.00000,-65.82712
215.00000,-65.87356
216.00000,-65.91987
217.00000,-65.96604
218.00000,-66.01209
219.00000,-66.05802
220.00000,-66.10382
221.00000,-66.14950
222.00000,-66.19506
223.00000,-66.24051
224.00000,-66.28584
225.00000,-66.33106
226.00000,-66.37616
227.00000,-66.42116
228.00000,-66.46606
229.00000,-66.51085
230.00000,-66.55554
231.00000,-66.60013
232.00000,-66.64462
233.00000,-66.68901
234.00000,-66.73332
235.00000,-66.77753
236.00000,-66.82165
237.00000,-66.86569
238.00000,-66.90964
239.00000,-66.95350
240.00000,-66.99729
241.00000,-67.04100
242.00000,-67.08463
243.00000,-67.12818
244.00000,-67.17167
245.00000,-67.21508
246.00000,-67.25842
247.00000,-67.30170
248.00000,-67.34491
249.00000,-67.38806
250.00000,-67.43115
251.00000,-67.47418
252.00000,-67.51716
253.00000,-67.56007
254.00000,-67.60294
255.00000,-67.64576
256.00000,-67.68853
257.00000,-67.73125
258.00000,-67.77392
259.00000,-67.81656
260.00000,-67.85915
261.00000,-67.90171
262.00000,-67.94423
263.00000,-67.98671
264.00000,-68.02916
265.00000,-68.07159
266.00000,-68.11398
267.00000,-68.15635
268.00000,-68.19870
269.00000,-68.24102
270.00000,-68.28333
271.00000,-68.32561
272.00000,-68.36788
273.00000,-68.41014
274.00000,-68.45239
275.00000,-68.49463
276.00000,-68.53686
277.00000,-68.57909
278.00000,-68.62131
279.00000,-68.66354
280.00000,-68.70577
281.00000,-68.74800
282.00000,-68.79024
283.00000,-68.83249
284.00000,-68.87475
285.00000,-68.91702
286.00000,-68.95932
287.00000,-69.00162
288.00000,-69.04395
289.00000,-69.08631
290.00000,-69.12869
291.00000,-69.17110
292.00000,-69.21354
293.00000,-69.25601
294.00000,-69.29852
295.00000,-69.34107
296.00000,-69.38365
297.00000,-69.42629
298.00000,-69.46897
299.00000,-69.51169
300.00000,-69.55448
301.00000,-69.59731
302.00000,-69.64020
303.00000,-69.68316
304.00000,-69.72618
305.00000,-69.76926
306.00000,-69.81241
307.00000,-69.85564
308.00000,-69.89894
309.00000,-69.94232
310.00000,-69.98578
311.00000,-70.02933
312.00000,-70.07296
313.00000,-70.11669
314.00000,-70.16051
315.00000,-70.20443
316.00000,-70.24845
317.00000,-70.29257
318.00000,-70.33681
319.00000,-70.38116
320.00000,-70.42562
321.00000,-70.47020
322.00000,-70.51491
323.00000,-70.55975
324.00000,-70.60471
325.00000,-70.64982
326.00000,-70.69506
327.00000,-70.74045
328.00000,-70.78598
329.00000,-70.83167
330.00000,-70.87752
331.00000,-70.92353
332.00000,-70.96970
333.00000,-71.01605
334.00000,-71.06257
335.00000,-71.10928
336.00000,-71.15617
337.00000,-71.20325
338.00000,-71.25053
339.00000,-71.29802
340.00000,-71.34571
341.00000,-71.39361
342.00000,-71.44173
343.00000,-71.49008
344.00000,-71.53867
345.00000,-71.58748
346.00000,-71.63655
347.00000,-71.68586
348.00000,-71.73543
349.00000,-71.78527
350.00000,-71.83538
351.00000,-71.88577
352.00000,-71.93644
353.00000,-71.98741
354.00000,-72.03868
355.00000,-72.09026
356.00000,-72.14216
357.00000,-72.19438
358.00000,-72.24695
359.00000,-72.29986
360.00000,-72.35312
361.00000,-72.40674
362.00000,-72.46074
363.00000,-72.51513
364.00000,-72.56991
365.00000,-72.62509
366.00000,-72.68070
367.00000,-72.73673
368.00000,-72.79320
369.00000,-72.85012
370.00000,-72.90751
371.00000,-72.96538
372.00000,-73.02374
373.00000,-73.08261
374.00000,-73.14200
375.00000,-73.20192
376.00000,-73.26240
377.00000,-73.32345
378.00000,-73.38508
379.00000,-73.44731
380.00000,-73.51017
381.00000,-73.57366
382.00000,-73.63781
383.00000,-73.70265
384.00000,-73.76818
385.00000,-73.83444
386.00000,-73.90144
387.00000,-73.96921
388.00000,-74.03778
389.00000,-74.10717
390.00000,-74.17741
391.00000,-74.24852
392.00000,-74.32054
393.00000,-74.39350
394.00000,-74.46743
395.00000,-74.54236
396.00000,-74.61833
397.00000,-74.69538
398.00000,-74.77354
399.00000,-74.85287
400.00000,-74.93339
401.00000,-75.01516
402.00000,-75.09823
403.00000,-75.18265
404.00000,-75.26846
405.00000,-75.35573
406.00000,-75.44452
407.00000,-75.53490
408.00000,-75.62692
409.00000,-75.72066
410.00000,-75.81620
411.00000,-75.91361
412.00000,-76.01300
413.00000,-76.11444
414.00000,-76.21803
415.00000,-76.32389
416.00000,-76.43212
417.00000,-76.54285
418.00000,-76.65620
419.00000,-76.77233
420.00000,-76.89138
421.00000,-77.01351
422.00000,-77.13891
423.00000,-77.26777
424.00000,-77.40030
425.00000,-77.53673
426.00000,-77.67732
427.00000,-77.82234
428.00000,-77.97211
429.00000,-78.12695
430.00000,-78.28726
431.00000,-78.45343
432.00000,-78.62596
433.00000,-78.80534
434.00000,-78.99219
435.00000,-79.18717
436.00000,-79.39105
437.00000,-79.60470
438.00000,-79.82913
439.00000,-80.06553
440.00000,-80.31527
441.00000,-80.57997
442.00000,-80.86158
443.00000,-81.16246
444.00000,-81.48546
445.00000,-81.83415
446.00000,-82.21302
447.00000,-82.62784
448.00000,-83.08623
449.00000,-83.59848
450.00000,-84.17904
451.00000,-84.84907
452.00000,-85.64135
453.00000,-86.61084
454.00000,-87.86054
455.00000,-89.62164
456.00000,-92.63209
457.00000,-155.36594
458.00000,-92.63208
459.00000,-89.62165
460.00000,-87.86052
461.00000,-86.61084
462.00000,-85.64135
463.00000,-84.84907
464.00000,-84.17904
465.00000,-83.59848
466.00000,-83.08623
467.00000,-82.62784
468.00000,-82.21302
469.00000,-81.83415
470.00000,-81.48546
471.00000,-81.16246
472.00000,-80.86158
473.00000,-80.57997
474.00000,-80.31527
475.00000,-80.06553
476.00000,-79.82913
477.00000,-79.60470
478.00000,-79.39105
479.00000,-79.18717
480.00000,-78.99219
481.00000,-78.80534
482.00000,-78.62596
483.00000,-78.45343
484.00000,-78.28726
485.00000,-78.12695
486.00000,-77.97211
487.00000,-77.82234
488.00000,-77.67732
489.00000,-77.53673
490.00000,-77.40030
491.00000,-77.26777
492.00000,-77.13891
493.00000,-77.01351
494.00000,-76.89138
495.00000,-76.77233
496.00000,-76.65620
497.00000,-76.54285
498.00000,-76.43212
499.00000,-76.32389
500.00000,-76.21803
501.00000,-76.11444
502.00000,-76.01300
503.00000,-75.91362
504.00000,-75.81620
505.00000,-75.72066
506.00000,-75.62692
507.00000,-75.53490
508.00000,-75.44452
509.00000,-75.35573
510.00000,-75.26846
511.00000,-75.18265
512.00000,-75.09823
513.00000,-75.01516
514.00000,-74.93339
515.00000,-74.85287
516.00000,-74.77354
517.00000,-74.69538
518.00000,-74.61833
519.00000,-74.54236
520.00000,-74.46743
521.00000,-74.39350
522.00000,-74.32054
523.00000,-74.24852
524.00000,-74.17741
525.00000,-74.10717
526.00000,-74.03778
527.00000,-73.96921
528.00000,-73.90144
529.00000,-73.83444
530.00000,-73.76818
531.00000,-73.70265
532.00000,-73.63781
533.00000,-73.57366
534.00000,-73.51017
535.00000,-73.44731
536.00000,-73.38508
537.00000,-73.32345
538.00000,-73.26240
539.00000,-73.20192
540.00000,-73.14200
541.00000,-73.08261
542.00000,-73.02374
543.00000,-72.96538
544.00000,-72.90751
545.00000,-72.85012
546.00000,-72.79320
547.00000,-72.73673
548.00000,-72.68070
549.00000,-72.62509
550.00000,-72.56991
551.00000,-72.51513
552.00000,-72.46074
553.00000,-72.40674
554.00000,-72.35312
555.00000,-72.29986
556.00000,-72.24695
557.00000,-72.19438
558.00000,-72.14216
559.00000,-72.09026
560.00000,-72.03868
561.00000,-71.98741
562.00000,-71.93644
563.00000,-71.88577
564.00000,-71.83538
565.00000,-71.78527
566.00000,-71.73543
567.00000,-71.68586
568.00000,-71.63655
569.00000,-71.58748
570.00000,-71.53867
571.00000,-71.49008
572.00000,-71.44173
573.00000,-71.39361
574.00000,-71.34571
575.00000,-71.29802
576.00000,-71.25053
577.00000,-71.20325
578.00000,-71.15617
579.00000,-71.10928
580.00000,-71.06257
581.00000,-71.01605
582.00000,-70.96970
583.00000,-70.92353
584.00000,-70.87752
585.00000,-70.83167
586.00000,-70.78598
587.00000,-70.74045
588.00000,-70.69506
589.00000,-70.64982
590.00000,-70.60471
591.00000,-70.55975
592.00000,-70.51491
593.00000,-70.47020
594.00000,-70.42562
595.00000,-70.38116
596.00000,-70.33681
597.00000,-70.29257
598.00000,-70.24845
599.00000,-70.20443
600.00000,-70.16051
601.00000,-70.11669
602.00000,-70.07296
603.00000,-70.02933
604.00000,-69.98578
605.00000,-69.94232
606.00000,-69.89894
607.00000,-69.85564
608.00000,-69.81241
609.00000,-69.76926
610.00000,-69.72617
611.00000,-69.68316
612.00000,-69.64020
613.00000,-69.59731
614.00000,-69.55448
615.00000,-69.51169
616.00000,-69.46897
617.00000,-69.42629
618.00000,-69.38365
619.00000,-69.34107
620.00000,-69.29852
621.00000,-69.25601
622.00000,-69.21354
623.00000,-69.17110
624.00000,-69.12869
625.00000,-69.08631
626.00000,-69.04395
627.00000,-69.00162
628.00000,-68.95932
629.00000,-68.91702
630.00000,-68.87475
631.00000,-68.83249
632.00000,-68.79024
633.00000,-68.74800
634.00000,-68.70577
635.00000,-68.66354
636.00000,-68.62131
637.00000,-68.57909
638.00000,-68.53686
639.00000,-68.49463
640.00000,-68.45239
641.00000,-68.41014
642.00000,-68.36788
643.00000,-68.32561
644.00000,-68.28333
645.00000,-68.24102
646.00000,-68.19870
647.00000,-68.15635
648.00000,-68.11398
649.00000,-68.07159
650.00000,-68.02916
651.00000,-67.98671
652.00000,-67.94423
653.00000,-67.90171
654.00000,-67.85915
655.00000,-67.81656
656.00000,-67.77392
657.00000,-67.73125
658.00000,-67.68853
659.00000,-67.64576
660.00000,-67.60294
661.00000,-67.56008
662.00000,-67.51716
663.00000,-67.47418
664.00000,-67.43115
665.00000,-67.38806
666.00000,-67.34491
667.00000,-67.30170
668.00000,-67.25842
669.00000,-67.21508
670.00000,-67.17167
671.00000,-67.12818
672.00000,-67.08463
673.00000,-67.04100
674.00000,-66.99729
675.00000,-66.95350
676.00000,-66.90964
677.00000,-66.86569
678.00000,-66.82165
679.00000,-66.77753
680.00000,-66.73332
681.00000,-66.68901
682.00000,-66.64462
683.00000,-66.60013
684.00000,-66.55554
685.00000,-66.51085
686.00000,-66.46606
687.00000,-66.42116
688.00000,-66.37616
689.00000,-66.33106
690.00000,-66.28584
691.00000,-66.24051
692.00000,-66.19506
693.00000,-66.14950
694.00000,-66.10382
695.00000,-66.05802
696.00000,-66.01209
697.00000,-65.96604
698.00000,-65.91987
699.00000,-65.87356
700.00000,-65.82712
701.00000,-65.78054
702.00000,-65.73383
703.00000,-65.68697
704.00000,-65.63998
705.00000,-65.59284
706.00000,-65.54556
707.00000,-65.49812
708.00000,-65.45054
709.00000,-65.40280
710.00000,-65.35491
711.00000,-65.30685
712.00000,-65.25864
713.00000,-65.21026
714.00000,-65.16171
715.00000,-65.11300
716.00000,-65.06411
717.00000,-65.01505
718.00000,-64.96581
719.00000,-64.91639
720.00000,-64.86679
721.00000,-64.81701
722.00000,-64.76703
723.00000,-64.71687
724.00000,-64.66651
725.00000,-64.61595
726.00000,-64.56520
727.00000,-64.51424
728.00000,-64.46307
729.00000,-64.41170
730.00000,-64.36012
731.00000,-64.30832
732.00000,-64.25630
733.00000,-64.20406
734.00000,-64.15159
735.00000,-64.09890
736.00000,-64.04598
737.00000,-63.99282
738.00000,-63.93942
739.00000,-63.88578
740.00000,-63.83190
741.00000,-63.77777
742.00000,-63.72338
743.00000,-63.66874
744.00000,-63.61384
745.00000,-63.55867
746.00000,-63.50324
747.00000,-63.44754
748.00000,-63.39155
749.00000,-63.33530
750.00000,-63.27875
751.00000,-63.22192
752.00000,-63.16480
753.00000,-63.10738
754.00000,-63.04965
755.00000,-62.99163
756.00000,-62.93329
757.00000,-62.87464
758.00000,-62.81567
759.00000,-62.75637
760.00000,-62.69675
761.00000,-62.63679
762.00000,-62.57649
763.00000,-62.51585
764.00000,-62.45486
765.00000,-62.39351
766.00000,-62.33180
767.00000,-62.26973
768.00000,-62.20728
769.00000,-62.14446
770.00000,-62.08126
771.00000,-62.01766
772.00000,-61.95367
773.00000,-61.88928
774.00000,-61.82448
775.00000,-61.75927
776.00000,-61.69363
777.00000,-61.62757
778.00000,-61.56107
779.00000,-61.49414
780.00000,-61.42675
781.00000,-61.35890
782.00000,-61.29060
783.00000,-61.22182
784.00000,-61.15256
785.00000,-61.08281
786.00000,-61.01257
787.00000,-60.94182
788.00000,-60.87056
789.00000,-60.79878
790.00000,-60.72647
791.00000,-60.65362
792.00000,-60.58022
793.00000,-60.50626
794.00000,-60.43173
795.00000,-60.35663
796.00000,-60.28093
797.00000,-60.20464
798.00000,-60.12773
799.00000,-60.05020
800.00000,-59.97204
801.00000,-59.89323
802.00000,-59.81377
803.00000,-59.73364
804.00000,-59.65282
805.00000,-59.57131
806.00000,-59.48909
807.00000,-59.40614
808.00000,-59.32246
809.00000,-59.23803
810.00000,-59.15283
811.00000,-59.06685
812.00000,-58.98007
813.00000,-58.89248
814.00000,-58.80406
815.00000,-58.71478
816.00000,-58.62464
817.00000,-58.53362
818.00000,-58.44169
819.00000,-58.34884
820.00000,-58.25505
821.00000,-58.16029
822.00000,-58.06454
823.00000,-57.96779
824.00000,-57.87000
825.00000,-57.77116
826.00000,-57.67124
827.00000,-57.57022
828.00000,-57.46806
829.00000,-57.36475
830.00000,-57.26025
831.00000,-57.15454
832.00000,-57.04758
833.00000,-56.93934
834.00000,-56.82979
835.00000,-56.71890
836.00000,-56.60663
837.00000,-56.49295
838.00000,-56.37781
839.00000,-56.26118
840.00000,-56.14302
841.00000,-56.02328
842.00000,-55.90193
843.00000,-55.77890
844.00000,-55.65417
845.00000,-55.52767
846.00000,-55.39935
847.00000,-55.26916
848.00000,-55.13704
849.00000,-55.00293
850.00000,-54.86677
851.00000,-54.72849
852.00000,-54.58803
853.00000,-54.44530
854.00000,-54.30024
855.00000,-54.15277
856.00000,-54.00279
857.00000,-53.85023
858.00000,-53.69499
859.00000,-53.53696
860.00000,-53.37606
861.00000,-53.21216
862.00000,-53.04515
863.00000,-52.87491
864.00000,-52.70131
865.00000,-52.52421
866.00000,-52.34346
867.00000,-52.15891
868.00000,-51.97038
869.00000,-51.77771
870.00000,-51.58069
871.00000,-51.37914
872.00000,-51.17282
873.00000,-50.96151
874.00000,-50.74495
875.00000,-50.52287
876.00000,-50.29497
877.00000,-50.06095
878.00000,-49.82045
879.00000,-49.57310
880.00000,-49.31849
881.00000,-49.05617
882.00000,-48.78567
883.00000,-48.50643
884.00000,-48.21787
885.00000,-47.91933
886.00000,-47.61009
887.00000,-47.28933
888.00000,-46.95615
889.00000,-46.60954
890.00000,-46.24833
891.00000,-45.87122
892.00000,-45.47672
893.00000,-45.06310
894.00000,-44.62839
895.00000,-44.17025
896.00000,-43.68595
897.00000,-43.17224
898.00000,-42.62516
899.00000,-42.04062
900.00000,-41.40493
901.00000,-40.79306
902.00000,-39.47141
903.00000,-53.93676
904.00000,-29.71742
905.00000,-22.37103
906.00000,-15.07267
907.00000,-9.33299
908.00000,-5.52614
909.00000,-5.96486
910.00000,-5.53594
911.00000,-9.29043
912.00000,-14.95219
913.00000,-21.43572
